{
  "page": 1,
  "total_results": 10000,
  "total_pages": 500,
  "results": [
    {
      "popularity": 149.547,
      "vote_count": 3929,
      "video": false,
      "poster_path": "\/xBHvZcjRiWyobQ9kxBhO6B2dtRI.jpg",
      "id": 419704,
      "adult": false,
      "backdrop_path": "\/AeDS2MKGFy6QcjgWbJBde0Ga6Hd.jpg",
      "original_language": "en",
      "original_title": "Ad Astra",
      "genre_ids": [
        18,
        878
      ],
      "title": "Ad Astra",
      "vote_average": 6.1,
      "overview": "The near future, a time when both hope and hardships drive humanity to look to the stars and beyond. While a mysterious phenomenon menaces to destroy life on planet Earth, astronaut Roy McBride undertakes a mission across the immensity of space and its many perils to uncover the truth about a lost expedition that decades before boldly faced emptiness and silence in search of the unknown.",
      "release_date": "2019-09-17"
    },
    {
      "popularity": 98.861,
      "vote_count": 5070,
      "video": false,
      "poster_path": "\/aQvJ5WPzZgYVDrxLX4R6cLJCEaQ.jpg",
      "id": 454626,
      "adult": false,
      "backdrop_path": "\/stmYfCUGd8Iy6kAMBr6AmWqx8Bq.jpg",
      "original_language": "en",
      "original_title": "Sonic the Hedgehog",
      "genre_ids": [
        28,
        35,
        878,
        10751
      ],
      "title": "Sonic the Hedgehog",
      "vote_average": 7.5,
      "overview": "Based on the global blockbuster videogame franchise from Sega, Sonic the Hedgehog tells the story of the world’s speediest hedgehog as he embraces his new home on Earth. In this live-action adventure comedy, Sonic and his new best friend team up to defend the planet from the evil genius Dr. Robotnik and his plans for world domination.",
      "release_date": "2020-02-12"
    },
    {
      "popularity": 92.608,
      "vote_count": 18909,
      "video": false,
      "poster_path": "\/7WsyChQLEftFiDOVTGkv3hFpyyt.jpg",
      "id": 299536,
      "adult": false,
      "backdrop_path": "\/lmZFxXgJE3vgrciwuDib0N8CfQo.jpg",
      "original_language": "en",
      "original_title": "Avengers: Infinity War",
      "genre_ids": [
        28,
        12,
        878
      ],
      "title": "Avengers: Infinity War",
      "vote_average": 8.3,
      "overview": "As the Avengers and their allies have continued to protect the world from threats too large for any one hero to handle, a new danger has emerged from the cosmic shadows: Thanos. A despot of intergalactic infamy, his goal is to collect all six Infinity Stones, artifacts of unimaginable power, and use them to inflict his twisted will on all of reality. Everything the Avengers have fought for has led up to this moment - the fate of Earth and existence itself has never been more uncertain.",
      "release_date": "2018-04-25"
    },
    {
      "popularity": 53.723,
      "vote_count": 8479,
      "video": false,
      "poster_path": "\/gajva2L0rPYkEWjzgFlBXCAVBE5.jpg",
      "id": 335984,
      "adult": false,
      "backdrop_path": "\/sAtoMqDVhNDQBc3QJL3RF6hlhGq.jpg",
      "original_language": "en",
      "original_title": "Blade Runner 2049",
      "genre_ids": [
        18,
        878
      ],
      "title": "Blade Runner 2049",
      "vote_average": 7.4,
      "overview": "Thirty years after the events of the first film, a new blade runner, LAPD Officer K, unearths a long-buried secret that has the potential to plunge what's left of society into chaos. K's discovery leads him on a quest to find Rick Deckard, a former LAPD blade runner who has been missing for 30 years.",
      "release_date": "2017-10-04"
    },
    {
      "popularity": 79.379,
      "vote_count": 23035,
      "video": false,
      "poster_path": "\/gEU2QniE6E77NI6lCU6MxlNBvIx.jpg",
      "id": 157336,
      "adult": false,
      "backdrop_path": "\/xJHokMbljvjADYdit5fK5VQsXEG.jpg",
      "original_language": "en",
      "original_title": "Interstellar",
      "genre_ids": [
        12,
        18,
        878
      ],
      "title": "Interstellar",
      "vote_average": 8.3,
      "overview": "The adventures of a group of explorers who make use of a newly discovered wormhole to surpass the limitations on human space travel and conquer the vast distances involved in an interstellar voyage.",
      "release_date": "2014-11-05"
    },
    {
      "popularity": 76.53,
      "vote_count": 637,
      "video": false,
      "poster_path": "\/tI8ocADh22GtQFV28vGHaBZVb0U.jpg",
      "id": 475430,
      "adult": false,
      "backdrop_path": "\/o0F8xAt8YuEm5mEZviX5pEFC12y.jpg",
      "original_language": "en",
      "original_title": "Artemis Fowl",
      "genre_ids": [
        12,
        14,
        878,
        10751
      ],
      "title": "Artemis Fowl",
      "vote_average": 5.8,
      "overview": "Artemis Fowl is a 12-year-old genius and descendant of a long line of criminal masterminds. He soon finds himself in an epic battle against a race of powerful underground fairies who may be behind his father's disappearance.",
      "release_date": "2020-06-12"
    },
    {
      "popularity": 81.521,
      "vote_count": 297,
      "video": false,
      "poster_path": "\/rpqfpSglhDpwihzsLaoketuYKbd.jpg",
      "id": 514207,
      "adult": false,
      "backdrop_path": "\/cbJNZeFkiG4ggsNcwzBs6yeCXga.jpg",
      "original_language": "ru",
      "original_title": "Вторжение",
      "genre_ids": [
        28,
        878
      ],
      "title": "Invasion",
      "vote_average": 7.1,
      "overview": "After the fall of the alien ship, it took three years. The catastrophe turned the girl's life from Chertanovo and forever changed our view of the universe. It seems that this was the biggest test for all of us. But mankind does not yet know that very soon he will have to experience a new meeting.",
      "release_date": "2020-01-01"
    },
    {
      "popularity": 64.28,
      "vote_count": 14131,
      "video": false,
      "poster_path": "\/or06FN3Dka5tukK1e9sl16pB3iy.jpg",
      "id": 299534,
      "adult": false,
      "backdrop_path": "\/7RyHsO4yDXtBv1zUU3mTpHeQ0d5.jpg",
      "original_language": "en",
      "original_title": "Avengers: Endgame",
      "genre_ids": [
        28,
        12,
        878
      ],
      "title": "Avengers: Endgame",
      "vote_average": 8.3,
      "overview": "After the devastating events of Avengers: Infinity War, the universe is in ruins due to the efforts of the Mad Titan, Thanos. With the help of remaining allies, the Avengers must assemble once more in order to undo Thanos' actions and restore order to the universe once and for all, no matter what consequences may be in store.",
      "release_date": "2019-04-24"
    },
    {
      "popularity": 82.493,
      "vote_count": 2560,
      "video": false,
      "poster_path": "\/vqzNJRH4YyquRiWxCCOH0aXggHI.jpg",
      "id": 290859,
      "adult": false,
      "backdrop_path": "\/a6cDxdwaQIFjSkXf7uskg78ZyTq.jpg",
      "original_language": "en",
      "original_title": "Terminator: Dark Fate",
      "genre_ids": [
        28,
        12,
        878
      ],
      "title": "Terminator: Dark Fate",
      "vote_average": 6.5,
      "overview": "Decades after Sarah Connor prevented Judgment Day, a lethal new Terminator is sent to eliminate the future leader of the resistance. In a fight to save mankind, battle-hardened Sarah Connor teams up with an unexpected ally and an enhanced super soldier to stop the deadliest Terminator yet.",
      "release_date": "2019-10-23"
    },
    {
      "popularity": 73.058,
      "vote_count": 13950,
      "video": false,
      "poster_path": "\/6FfCtAuVAW8XJjZ7eWeLibRLWTw.jpg",
      "id": 11,
      "adult": false,
      "backdrop_path": "\/zqkmTXzjkAgXmEWLRsY4UpTWCeo.jpg",
      "original_language": "en",
      "original_title": "Star Wars",
      "genre_ids": [
        28,
        12,
        878
      ],
      "title": "Star Wars",
      "vote_average": 8.2,
      "overview": "Princess Leia is captured and held hostage by the evil Imperial forces in their effort to take over the galactic Empire. Venturesome Luke Skywalker and dashing captain Han Solo team together with the loveable robot duo R2-D2 and C-3PO to rescue the beautiful princess and restore peace and justice in the Empire.",
      "release_date": "1977-05-25"
    },
    {
      "popularity": 93.219,
      "vote_count": 132,
      "video": false,
      "poster_path": "\/yf5IuMW6GHghu39kxA0oFx7Bxmj.jpg",
      "id": 587792,
      "adult": false,
      "backdrop_path": "\/d7JUXVvjvVCXWs1mlpyO5ESdWdT.jpg",
      "original_language": "en",
      "original_title": "Palm Springs",
      "genre_ids": [
        35,
        878,
        10749
      ],
      "title": "Palm Springs",
      "vote_average": 7.8,
      "overview": "When carefree Nyles and reluctant maid of honor Sarah have a chance encounter at a Palm Springs wedding, things get complicated as they are unable to escape the venue, themselves, or each other.",
      "release_date": "2020-01-26"
    },
    {
      "popularity": 63.961,
      "vote_count": 26456,
      "video": false,
      "poster_path": "\/9gk7adHYeDvHkCSEqAvQNLV5Uge.jpg",
      "id": 27205,
      "adult": false,
      "backdrop_path": "\/s3TBrRGB1iav7gFOCNx3H31MoES.jpg",
      "original_language": "en",
      "original_title": "Inception",
      "genre_ids": [
        28,
        12,
        878
      ],
      "title": "Inception",
      "vote_average": 8.3,
      "overview": "Cobb, a skilled thief who commits corporate espionage by infiltrating the subconscious of his targets is offered a chance to regain his old life as payment for a task considered to be impossible: \"inception\", the implantation of another person's idea into a target's subconscious.",
      "release_date": "2010-07-15"
    },
    {
      "popularity": 70.619,
      "vote_count": 5214,
      "video": false,
      "poster_path": "\/db32LaOibwEliAmSL2jjDF6oDdj.jpg",
      "id": 181812,
      "adult": false,
      "backdrop_path": "\/SPkEiZGxq5aHWQ2Zw7AITwSEo2.jpg",
      "original_language": "en",
      "original_title": "Star Wars: The Rise of Skywalker",
      "genre_ids": [
        28,
        12,
        878
      ],
      "title": "Star Wars: The Rise of Skywalker",
      "vote_average": 6.6,
      "overview": "The surviving Resistance faces the First Order once again as the journey of Rey, Finn and Poe Dameron continues. With the power and knowledge of generations behind them, the final battle begins.",
      "release_date": "2019-12-18"
    },
    {
      "popularity": 62.086,
      "vote_count": 2815,
      "video": false,
      "poster_path": "\/8WUVHemHFH2ZIP6NWkwlHWsyrEL.jpg",
      "id": 338762,
      "adult": false,
      "backdrop_path": "\/lP5eKh8WOcPysfELrUpGhHJGZEH.jpg",
      "original_language": "en",
      "original_title": "Bloodshot",
      "genre_ids": [
        28,
        878
      ],
      "title": "Bloodshot",
      "vote_average": 6.9,
      "overview": "After he and his wife are murdered, marine Ray Garrison is resurrected by a team of scientists. Enhanced with nanotechnology, he becomes a superhuman, biotech killing machine—'Bloodshot'. As Ray first trains with fellow super-soldiers, he cannot recall anything from his former life. But when his memories flood back and he remembers the man that killed both him and his wife, he breaks out of the facility to get revenge, only to discover that there's more to the conspiracy than he thought.",
      "release_date": "2020-03-05"
    },
    {
      "popularity": 52.989,
      "vote_count": 2411,
      "video": false,
      "poster_path": "\/5EufsDwXdY2CVttYOk2WtYhgKpa.jpg",
      "id": 570670,
      "adult": false,
      "backdrop_path": "\/uZMZyvarQuXLRqf3xdpdMqzdtjb.jpg",
      "original_language": "en",
      "original_title": "The Invisible Man",
      "genre_ids": [
        27,
        878,
        53
      ],
      "title": "The Invisible Man",
      "vote_average": 7.2,
      "overview": "When Cecilia's abusive ex takes his own life and leaves her his fortune, she suspects his death was a hoax. As a series of coincidences turn lethal, Cecilia works to prove that she is being hunted by someone nobody can see.",
      "release_date": "2020-02-26"
    },
    {
      "popularity": 54.814,
      "vote_count": 13,
      "video": false,
      "poster_path": "\/q9t1AxbzyGQENDunK1GT8OS4aJl.jpg",
      "id": 606234,
      "adult": false,
      "backdrop_path": "\/ckRBJIHrUhQMMkEhuk4iW2NIBWP.jpg",
      "original_language": "en",
      "original_title": "Archive",
      "genre_ids": [
        878
      ],
      "title": "Archive",
      "vote_average": 7.8,
      "overview": "2038: George Almore is working on a true human-equivalent AI, and his latest prototype is almost ready. This sensitive phase is also the riskiest as he has a goal that must be hidden at all costs—being reunited with his dead wife.",
      "release_date": "2020-07-01"
    },
    {
      "popularity": 56.038,
      "vote_count": 7822,
      "video": false,
      "poster_path": "\/4q2NNj4S5dG2RLF9CpXsej7yXl.jpg",
      "id": 429617,
      "adult": false,
      "backdrop_path": "\/5myQbDzw3l8K9yofUXRJ4UTVgam.jpg",
      "original_language": "en",
      "original_title": "Spider-Man: Far from Home",
      "genre_ids": [
        28,
        12,
        878
      ],
      "title": "Spider-Man: Far from Home",
      "vote_average": 7.5,
      "overview": "Peter Parker and his friends go on a summer trip to Europe. However, they will hardly be able to rest - Peter will have to agree to help Nick Fury uncover the mystery of creatures that cause natural disasters and destruction throughout the continent.",
      "release_date": "2019-06-28"
    },
    {
      "popularity": 42.606,
      "vote_count": 15441,
      "video": false,
      "poster_path": "\/uxzzxijgPIY7slzFvMotPv8wjKA.jpg",
      "id": 284054,
      "adult": false,
      "backdrop_path": "\/6ELJEzQJ3Y45HczvreC3dg0GV5R.jpg",
      "original_language": "en",
      "original_title": "Black Panther",
      "genre_ids": [
        28,
        12,
        14,
        878
      ],
      "title": "Black Panther",
      "vote_average": 7.4,
      "overview": "King T'Challa returns home from America to the reclusive, technologically advanced African nation of Wakanda to serve as his country's new leader. However, T'Challa soon finds that he is challenged for the throne by factions within his own country as well as without. Using powers reserved to Wakandan kings, T'Challa assumes the Black Panther mantel to join with girlfriend Nakia, the queen-mother, his princess-kid sister, members of the Dora Milaje (the Wakandan 'special forces') and an American secret agent, to prevent Wakanda from being dragged into a world war.",
      "release_date": "2018-02-13"
    },
    {
      "popularity": 43.122,
      "vote_count": 4982,
      "video": false,
      "poster_path": "\/azL2ThbJMIkts3ZMt3j1YgBUeDB.jpg",
      "id": 98566,
      "adult": false,
      "backdrop_path": "\/3eGlcdyxqEN57TtU8ypx52V4JMs.jpg",
      "original_language": "en",
      "original_title": "Teenage Mutant Ninja Turtles",
      "genre_ids": [
        28,
        12,
        35,
        14,
        878
      ],
      "title": "Teenage Mutant Ninja Turtles",
      "vote_average": 5.9,
      "overview": "The city needs heroes. Darkness has settled over New York City as Shredder and his evil Foot Clan have an iron grip on everything from the police to the politicians. The future is grim until four unlikely outcast brothers rise from the sewers and discover their destiny as Teenage Mutant Ninja Turtles. The Turtles must work with fearless reporter April and her wise-cracking cameraman Vern Fenwick to save the city and unravel Shredder's diabolical plan.",
      "release_date": "2014-08-07"
    },
    {
      "popularity": 43.389,
      "vote_count": 18684,
      "video": false,
      "poster_path": "\/78lPtwv72eTNqFW9COBYI0dWDJa.jpg",
      "id": 1726,
      "adult": false,
      "backdrop_path": "\/vbY95t58MDArtyUXUIb8Fx1dCry.jpg",
      "original_language": "en",
      "original_title": "Iron Man",
      "genre_ids": [
        28,
        12,
        878
      ],
      "title": "Iron Man",
      "vote_average": 7.6,
      "overview": "After being held captive in an Afghan cave, billionaire engineer Tony Stark creates a unique weaponized suit of armor to fight evil.",
      "release_date": "2008-04-30"
    }
  ]
}